<?xml version="1.0" encoding="UTF-8"?>
<root>
	<usertypes>
		<usertype>
			<id>1</id>
			<id_parent>14</id_parent>
			<title>Арендатор</title>
		</usertype>
		<usertype>
			<id>2</id>
			<id_parent>14</id_parent>
			<title>Риелтор</title>
		</usertype>
		<usertype>
			<id>3</id>
			<id_parent>14</id_parent>
			<title>Собственник бизнеса</title>
		</usertype>
		<usertype>
			<id>4</id>
			<id_parent>14</id_parent>
			<title>Инвестор</title>
		</usertype>
		<usertype>
			<id>5</id>
			<id_parent>14</id_parent>
			<title>Девелопер</title>
		</usertype>
		<usertype>
			<id>6</id>
			<id_parent>14</id_parent>
			<title>Бизнес брокер</title>
		</usertype>
		<usertype>
			<id>7</id>
			<id_parent>14</id_parent>
			<title>Специалист по недвижимости</title>
		</usertype>
		<usertype>
			<id>8</id>
			<id_parent>14</id_parent>
			<title>Специалист по оценке</title>
		</usertype>
		<usertype>
			<id>9</id>
			<id_parent>14</id_parent>
			<title>Ипотечный брокер</title>
		</usertype>
		<usertype>
			<id>10</id>
			<id_parent>14</id_parent>
			<title>Другой</title>
		</usertype>
		<usertype>
			<id>11</id>
			<id_parent>13</id_parent>
			<title>Пользователь</title>
		</usertype>
		<usertype>
			<id>12</id>
			<id_parent>13</id_parent>
			<title>Администратор</title>
		</usertype>
		<usertype>
			<id>13</id>
			<id_parent>0</id_parent>
			<title>Общие типы</title>
		</usertype>
		<usertype>
			<id>14</id>
			<id_parent>0</id_parent>
			<title>Специальные типы</title>
		</usertype>
	</usertypes>
	<userlinks>
		<link>
			<id_user>7126</id_user>
			<id_usertype>3</id_usertype>
		</link>
		<link>
			<id_user>7126</id_user>
			<id_usertype>4</id_usertype>
		</link>
		<link>
			<id_user>7127</id_user>
			<id_usertype>10</id_usertype>
		</link>
		<link>
			<id_user>7128</id_user>
			<id_usertype>4</id_usertype>
		</link>
		<link>
			<id_user>7129</id_user>
			<id_usertype>5</id_usertype>
		</link>
		<link>
			<id_user>7130</id_user>
			<id_usertype>10</id_usertype>
		</link>
		<link>
			<id_user>7130</id_user>
			<id_usertype>9</id_usertype>
		</link>
		<link>
			<id_user>7130</id_user>
			<id_usertype>1</id_usertype>
		</link>
		<link>
			<id_user>7130</id_user>
			<id_usertype>11</id_usertype>
		</link>
		<link>
			<id_user>7131</id_user>
			<id_usertype>7</id_usertype>
		</link>
		<link>
			<id_user>7132</id_user>
			<id_usertype>3</id_usertype>
		</link>
		<link>
			<id_user>7132</id_user>
			<id_usertype>12</id_usertype>
		</link>
	</userlinks>
	<users>
		<user>
			<id>7126</id>
			<fname>Сидор</fname>
			<sname>Михайлов</sname>
		</user>
		<user>
			<id>7127</id>
			<fname>Петр</fname>
			<sname>Васин</sname>
		</user>
		<user>
			<id>7128</id>
			<fname>Сидор</fname>
			<sname>Сидоров</sname>
		</user>
		<user>
			<id>7129</id>
			<fname>Ада</fname>
			<sname>Ловлейс</sname>
		</user>
		<user>
			<id>7130</id>
			<fname>Фортран</fname>
			<sname>Бейсиков</sname>
		</user>
		<user>
			<id>7131</id>
			<fname>Пхп</fname>
			<sname>Мускулов</sname>
		</user>
		<user>
			<id>7132</id>
			<fname>Альберт</fname>
			<sname>Эйнштейнш</sname>
		</user>
	</users>
</root>
